{
  "uuid": "profile-on-panel@euaaron.github.io",
  "name": "Profile on panel",
  "description": "A simple GNOME Shell Extension that add username and profile pic to the panel.",
  "version": 1,
  "shell-version": ["3.30", "3.32", "3.34", "3.36"],
  "url": "https://gitlab.gnome.org/euaaron/profile-on-panel"
}
